{"content":[{"id":4481,"registration_id":null,"sex":"F","birthday":"2011-02-22","transponder_id":"380058990186520.0","milking_group_id":1,"sessionNumber":1,"reproductionStatus":"Open","lactationNumber":7,"daysInMilk":161,"avgDailyYieldLast7d":5.72,"avgDailyYieldLast14d":5.59,"avgDailyYieldLast21d":5.9},{"id":4540,"registration_id":"IT058990186570","sex":"F","birthday":"2011-07-11","transponder_id":"380058990186570.0","milking_group_id":3,"sessionNumber":1,"reproductionStatus":"Open","lactationNumber":6,"daysInMilk":175,"avgDailyYieldLast7d":4.82,"avgDailyYieldLast14d":4.64,"avgDailyYieldLast21d":5.9},{"id":4560,"registration_id":"IT058990206663","sex":"F","birthday":"2011-12-19","transponder_id":"380058990206663.0","milking_group_id":2,"sessionNumber":1,"reproductionStatus":"Open","lactationNumber":6,"daysInMilk":174,"avgDailyYieldLast7d":8.53,"avgDailyYieldLast14d":8.35,"avgDailyYieldLast21d":8.43},{"id":4577,"registration_id":null,"sex":"F","birthday":"2012-01-18","transponder_id":"380058990206680.0","milking_group_id":1,"sessionNumber":1,"reproductionStatus":"Open","lactationNumber":7,"daysInMilk":161,"avgDailyYieldLast7d":6.98,"avgDailyYieldLast14d":6.98,"avgDailyYieldLast21d":6.99},{"id":4607,"registration_id":"IT058990206710","sex":"F","birthday":"2012-03-07","transponder_id":"380058990206710.0","milking_group_id":1,"sessionNumber":1,"reproductionStatus":"Open","lactationNumber":7,"daysInMilk":70,"avgDailyYieldLast7d":9.52,"avgDailyYieldLast14d":9.86,"avgDailyYieldLast21d":11.21},{"id":4695,"registration_id":null,"sex":"F","birthday":"2013-02-08","transponder_id":"380058990226309.0","milking_group_id":1,"sessionNumber":1,"reproductionStatus":"Dry","lactationNumber":5,"daysInMilk":318,"avgDailyYieldLast7d":5.91,"avgDailyYieldLast14d":5.94,"avgDailyYieldLast21d":5.89},{"id":4704,"registration_id":null,"sex":"F","birthday":"2013-02-28","transponder_id":"380058990226318.0","milking_group_id":1,"sessionNumber":1,"reproductionStatus":"Dry","lactationNumber":6,"daysInMilk":263,"avgDailyYieldLast7d":null,"avgDailyYieldLast14d":null,"avgDailyYieldLast21d":null},{"id":4719,"registration_id":null,"sex":"F","birthday":"2013-03-18","transponder_id":"380058990226333.0","milking_group_id":1,"sessionNumber":1,"reproductionStatus":"Dry","lactationNumber":4,"daysInMilk":319,"avgDailyYieldLast7d":4.98,"avgDailyYieldLast14d":5.06,"avgDailyYieldLast21d":6.59},{"id":4726,"registration_id":null,"sex":"F","birthday":"2013-03-25","transponder_id":"380058990226340.0","milking_group_id":1,"sessionNumber":1,"reproductionStatus":"Dry","lactationNumber":4,"daysInMilk":382,"avgDailyYieldLast7d":8.0,"avgDailyYieldLast14d":7.38,"avgDailyYieldLast21d":7.38},{"id":4732,"registration_id":null,"sex":"F","birthday":"2013-04-04","transponder_id":"380058990226346.0","milking_group_id":1,"sessionNumber":1,"reproductionStatus":"Open","lactationNumber":6,"daysInMilk":383,"avgDailyYieldLast7d":4.55,"avgDailyYieldLast14d":5.03,"avgDailyYieldLast21d":7.27}],"pageable":{"pageNumber":0,"pageSize":10,"sort":{"empty":false,"sorted":true,"unsorted":false},"offset":0,"paged":true,"unpaged":false},"last":false,"totalElements":309,"totalPages":31,"size":10,"number":0,"sort":{"empty":false,"sorted":true,"unsorted":false},"first":true,"numberOfElements":10,"empty":false}